{
  "$schema": "http://json-schema.org/draft-06/schema#",
  "title": "Ingredient",
  "description": "A recipe ingredient and quantity",
  "type": "object",
  "properties": {
    "name": {
      "type": "string"
    },
    "quantity": {
      "type": "number"
    },
    "unit": {
      "$ref": "schema/unit"
    },
    "annotation": {
      "type": "string",
      "description": "Instructions for the handling of the ingredient"
    }
  },
  "required": [ "name" ]
}
