{
  "$schema": "http://json-schema.org/draft-06/schema#",
  "title": "Recipe",
  "type": "object",
  "properties": {
    "name": {
      "type": "string"
    },
    "description": {
      "type": "string"
    },
    "yield": {
      "type": "string"
    },
    "method": {
      "type": "array",
      "items": {
        "type": "object",
        "oneOf": [
          {
            "type": "string"
          },
          {
            "$ref": "schema/step"
          }
        ]
      }
    },
    "ingredients": {
      "type": "array",
      "items": {
        "type": "object",
        "oneOf": [
          {
            "type": "schema/ingredient"
          },
          {
            "$ref": "schema/component"
          }
        ]
      }
    },
    "time": {
      "type": "array",
      "items": {
        "$ref": "schema/timing"
      }
    },
    "images": {
      "type": "string",
      "format": "uri"
    },
    "tags": {
      "type": "array",
      "uniqueItems": true,
      "items": {
        "type": "string"
      }
    },
    "notes": {
      "type": "array",
      "items": {
        "type": "string"
      }
    }
  },
  "required": [
    "name",
    "method",
    "ingredients"
  ]
}
