{
  "name": "Chicken and Mushroom Risotto",
  "ingredients": [
    {
      "name": "chicken breast fillets",
      "quantity": 5
    },
    {
      "name": "mushrooms",
      "quantity": 8,
      "annotation": "chopped"
    },
    {
      "name": "onion",
      "quantity": 1,
      "annotation": "diced"
    },
    {
      "name": "garlic cloves",
      "quantity": 2
    },
    {
      "name": "tin tomatoes",
      "quantity": 1
    },
    {
      "name": "chicken stock"
    },
    {
      "name": "rice",
      "quantity": 4.5,
      "unit": "cup"
    },
    {
      "name": "dry white wine"
    }
  ],
  "method": [
    "Prepare chicken. Put in pot with dry white wine on medium-low heat. When all changes to whitish colour, take off the heat and throw out the wine. Put back onto the heat and add wine. Allow wine to dry up.",
    "Add a bit of oil to the chicken then the onion, salt and pepper. When the onion goes slightly translucent, add chopped garlic.",
    "Add mushrooms. Dice tomatoes and add those but not the sauce in the tin. Turn the heat to low and put the lid on. All to 'make juices'.",
    "Boil water and make the stock.",
    "When aqua is ~3/4 high then take the lid off and allow to dry up.",
    "Add a touch of boiled water then rice and stock. Continue to stir and add stock when necessary. Cook until rice is ready."
  ]
}
